<?xml version="1.0" encoding="UTF-8" standalone="no"?>
<!-- Created with Inkscape (http://www.inkscape.org/) -->

<svg
   xmlns:dc="http://purl.org/dc/elements/1.1/"
   xmlns:cc="http://creativecommons.org/ns#"
   xmlns:rdf="http://www.w3.org/1999/02/22-rdf-syntax-ns#"
   xmlns:svg="http://www.w3.org/2000/svg"
   xmlns="http://www.w3.org/2000/svg"
   xmlns:sodipodi="http://sodipodi.sourceforge.net/DTD/sodipodi-0.dtd"
   xmlns:inkscape="http://www.inkscape.org/namespaces/inkscape"
   width="400"
   height="400"
   viewBox="0 0 400 400.00001"
   id="svg2"
   version="1.1"
   inkscape:version="0.91 r13725"
   sodipodi:docname="chroma.svg">
  <defs
     id="defs4" />
  <sodipodi:namedview
     id="base"
     pagecolor="#ffffff"
     bordercolor="#666666"
     borderopacity="1.0"
     inkscape:pageopacity="0.0"
     inkscape:pageshadow="2"
     inkscape:zoom="2.8"
     inkscape:cx="84.019325"
     inkscape:cy="185.83529"
     inkscape:document-units="px"
     inkscape:current-layer="layer1"
     showgrid="false"
     units="px"
     inkscape:window-width="2556"
     inkscape:window-height="1397"
     inkscape:window-x="0"
     inkscape:window-y="502"
     inkscape:window-maximized="0" />
  <metadata
     id="metadata7">
    <rdf:RDF>
      <cc:Work
         rdf:about="">
        <dc:format>image/svg+xml</dc:format>
        <dc:type
           rdf:resource="http://purl.org/dc/dcmitype/StillImage" />
        <dc:title></dc:title>
      </cc:Work>
    </rdf:RDF>
  </metadata>
  <g
     inkscape:label="Layer 1"
     inkscape:groupmode="layer"
     id="layer1"
     transform="translate(0,-652.36216)">
    <path
       style="fill:#00ee5d;fill-opacity:1;fill-rule:evenodd;stroke:none;stroke-width:1px;stroke-linecap:butt;stroke-linejoin:miter;stroke-opacity:1"
       d="M 102.87079,995.49034 C 124.31097,928.53441 145.1684,894.13899 147.14943,850.61494 149.13046,807.09088 13.847438,627.03696 63.253067,656.79515 112.6587,686.55334 147.03618,847.31161 164.86089,818.89896 c 18.17755,-28.97506 12.95516,-115.95192 39.15163,-144.09227 56.86309,-61.08259 -25.66096,124.07816 -23.77063,155.83893 6.52527,109.63543 68.51532,131.5625 54.53263,189.51258 -17.83981,73.9356 -53.55184,-175.57937 -70.84581,-173.85038 -13.13398,1.31309 -32.62637,227.88508 -49.40564,203.60858 -16.779277,-24.2763 -11.65228,-54.42606 -11.65228,-54.42606 z"
       id="path4136"
       inkscape:connector-curvature="0"
       sodipodi:nodetypes="czsssssssc" />
    <path
       style="fill:#ee0000;fill-opacity:1;fill-rule:evenodd;stroke:none;stroke-width:0.90113878px;stroke-linecap:butt;stroke-linejoin:miter;stroke-opacity:1"
       d="m 329.77854,782.3511 c -33.05653,57.06524 -41.75471,49.89154 -54.13657,90.93147 -12.38185,41.03992 25.55861,186.82683 -4.63699,142.01713 -30.19564,-44.80967 3.89804,-138.81537 -16.77607,-117.47945 -21.08331,21.75825 -13.47632,94.40852 -40.45872,112.72105 -58.56892,39.7499 25.18375,-98.0003 31.67833,-129.04914 22.41873,-107.17788 -3.40479,-142.99636 21.72194,-193.89528 32.05796,-64.9394 -18.98822,180.22441 -5.38437,184.27481 10.3315,3.07611 80.58666,-181.75142 87.30191,-152.95909 6.71526,28.79227 -19.30946,63.4385 -19.30946,63.4385 z"
       id="path4136-3"
       inkscape:connector-curvature="0"
       sodipodi:nodetypes="czsssssssc" />
  </g>
</svg>
