<?xml version="1.0" encoding="utf-8"?>
<svg version="1.1" baseProfile="full"  width="552" height="552" viewBox="0 0 552 552"
		 xmlns="http://www.w3.org/2000/svg" xmlns:xlink="http://www.w3.org/1999/xlink" xmlns:ev="http://www.w3.org/2001/xml-events">
<desc></desc>
<rect width="552" height="552" fill="#ffffff" cx="0" cy="0" />
<defs>
<rect id="p" width="8" height="8" />
</defs>
<g fill="#000000">
<use x="32" y="32" xlink:href="#p" />
<use x="32" y="40" xlink:href="#p" />
<use x="32" y="48" xlink:href="#p" />
<use x="32" y="56" xlink:href="#p" />
<use x="32" y="64" xlink:href="#p" />
<use x="32" y="72" xlink:href="#p" />
<use x="32" y="80" xlink:href="#p" />
<use x="32" y="96" xlink:href="#p" />
<use x="32" y="104" xlink:href="#p" />
<use x="32" y="120" xlink:href="#p" />
<use x="32" y="160" xlink:href="#p" />
<use x="32" y="168" xlink:href="#p" />
<use x="32" y="176" xlink:href="#p" />
<use x="32" y="200" xlink:href="#p" />
<use x="32" y="216" xlink:href="#p" />
<use x="32" y="224" xlink:href="#p" />
<use x="32" y="248" xlink:href="#p" />
<use x="32" y="256" xlink:href="#p" />
<use x="32" y="272" xlink:href="#p" />
<use x="32" y="280" xlink:href="#p" />
<use x="32" y="296" xlink:href="#p" />
<use x="32" y="304" xlink:href="#p" />
<use x="32" y="328" xlink:href="#p" />
<use x="32" y="352" xlink:href="#p" />
<use x="32" y="368" xlink:href="#p" />
<use x="32" y="376" xlink:href="#p" />
<use x="32" y="392" xlink:href="#p" />
<use x="32" y="400" xlink:href="#p" />
<use x="32" y="440" xlink:href="#p" />
<use x="32" y="448" xlink:href="#p" />
<use x="32" y="464" xlink:href="#p" />
<use x="32" y="472" xlink:href="#p" />
<use x="32" y="480" xlink:href="#p" />
<use x="32" y="488" xlink:href="#p" />
<use x="32" y="496" xlink:href="#p" />
<use x="32" y="504" xlink:href="#p" />
<use x="32" y="512" xlink:href="#p" />
<use x="40" y="32" xlink:href="#p" />
<use x="40" y="80" xlink:href="#p" />
<use x="40" y="96" xlink:href="#p" />
<use x="40" y="112" xlink:href="#p" />
<use x="40" y="120" xlink:href="#p" />
<use x="40" y="144" xlink:href="#p" />
<use x="40" y="168" xlink:href="#p" />
<use x="40" y="176" xlink:href="#p" />
<use x="40" y="192" xlink:href="#p" />
<use x="40" y="200" xlink:href="#p" />
<use x="40" y="208" xlink:href="#p" />
<use x="40" y="256" xlink:href="#p" />
<use x="40" y="264" xlink:href="#p" />
<use x="40" y="296" xlink:href="#p" />
<use x="40" y="312" xlink:href="#p" />
<use x="40" y="344" xlink:href="#p" />
<use x="40" y="352" xlink:href="#p" />
<use x="40" y="360" xlink:href="#p" />
<use x="40" y="376" xlink:href="#p" />
<use x="40" y="384" xlink:href="#p" />
<use x="40" y="424" xlink:href="#p" />
<use x="40" y="440" xlink:href="#p" />
<use x="40" y="448" xlink:href="#p" />
<use x="40" y="464" xlink:href="#p" />
<use x="40" y="512" xlink:href="#p" />
<use x="48" y="32" xlink:href="#p" />
<use x="48" y="48" xlink:href="#p" />
<use x="48" y="56" xlink:href="#p" />
<use x="48" y="64" xlink:href="#p" />
<use x="48" y="80" xlink:href="#p" />
<use x="48" y="96" xlink:href="#p" />
<use x="48" y="104" xlink:href="#p" />
<use x="48" y="112" xlink:href="#p" />
<use x="48" y="120" xlink:href="#p" />
<use x="48" y="128" xlink:href="#p" />
<use x="48" y="144" xlink:href="#p" />
<use x="48" y="160" xlink:href="#p" />
<use x="48" y="176" xlink:href="#p" />
<use x="48" y="192" xlink:href="#p" />
<use x="48" y="200" xlink:href="#p" />
<use x="48" y="216" xlink:href="#p" />
<use x="48" y="280" xlink:href="#p" />
<use x="48" y="296" xlink:href="#p" />
<use x="48" y="304" xlink:href="#p" />
<use x="48" y="312" xlink:href="#p" />
<use x="48" y="320" xlink:href="#p" />
<use x="48" y="344" xlink:href="#p" />
<use x="48" y="352" xlink:href="#p" />
<use x="48" y="360" xlink:href="#p" />
<use x="48" y="368" xlink:href="#p" />
<use x="48" y="376" xlink:href="#p" />
<use x="48" y="384" xlink:href="#p" />
<use x="48" y="392" xlink:href="#p" />
<use x="48" y="408" xlink:href="#p" />
<use x="48" y="432" xlink:href="#p" />
<use x="48" y="440" xlink:href="#p" />
<use x="48" y="448" xlink:href="#p" />
<use x="48" y="464" xlink:href="#p" />
<use x="48" y="480" xlink:href="#p" />
<use x="48" y="488" xlink:href="#p" />
<use x="48" y="496" xlink:href="#p" />
<use x="48" y="512" xlink:href="#p" />
<use x="56" y="32" xlink:href="#p" />
<use x="56" y="48" xlink:href="#p" />
<use x="56" y="56" xlink:href="#p" />
<use x="56" y="64" xlink:href="#p" />
<use x="56" y="80" xlink:href="#p" />
<use x="56" y="96" xlink:href="#p" />
<use x="56" y="112" xlink:href="#p" />
<use x="56" y="120" xlink:href="#p" />
<use x="56" y="136" xlink:href="#p" />
<use x="56" y="152" xlink:href="#p" />
<use x="56" y="168" xlink:href="#p" />
<use x="56" y="176" xlink:href="#p" />
<use x="56" y="184" xlink:href="#p" />
<use x="56" y="208" xlink:href="#p" />
<use x="56" y="216" xlink:href="#p" />
<use x="56" y="232" xlink:href="#p" />
<use x="56" y="240" xlink:href="#p" />
<use x="56" y="256" xlink:href="#p" />
<use x="56" y="264" xlink:href="#p" />
<use x="56" y="272" xlink:href="#p" />
<use x="56" y="280" xlink:href="#p" />
<use x="56" y="288" xlink:href="#p" />
<use x="56" y="296" xlink:href="#p" />
<use x="56" y="304" xlink:href="#p" />
<use x="56" y="312" xlink:href="#p" />
<use x="56" y="376" xlink:href="#p" />
<use x="56" y="392" xlink:href="#p" />
<use x="56" y="408" xlink:href="#p" />
<use x="56" y="416" xlink:href="#p" />
<use x="56" y="424" xlink:href="#p" />
<use x="56" y="432" xlink:href="#p" />
<use x="56" y="448" xlink:href="#p" />
<use x="56" y="464" xlink:href="#p" />
<use x="56" y="480" xlink:href="#p" />
<use x="56" y="488" xlink:href="#p" />
<use x="56" y="496" xlink:href="#p" />
<use x="56" y="512" xlink:href="#p" />
<use x="64" y="32" xlink:href="#p" />
<use x="64" y="48" xlink:href="#p" />
<use x="64" y="56" xlink:href="#p" />
<use x="64" y="64" xlink:href="#p" />
<use x="64" y="80" xlink:href="#p" />
<use x="64" y="104" xlink:href="#p" />
<use x="64" y="120" xlink:href="#p" />
<use x="64" y="128" xlink:href="#p" />
<use x="64" y="136" xlink:href="#p" />
<use x="64" y="144" xlink:href="#p" />
<use x="64" y="184" xlink:href="#p" />
<use x="64" y="216" xlink:href="#p" />
<use x="64" y="232" xlink:href="#p" />
<use x="64" y="240" xlink:href="#p" />
<use x="64" y="248" xlink:href="#p" />
<use x="64" y="256" xlink:href="#p" />
<use x="64" y="264" xlink:href="#p" />
<use x="64" y="272" xlink:href="#p" />
<use x="64" y="280" xlink:href="#p" />
<use x="64" y="288" xlink:href="#p" />
<use x="64" y="304" xlink:href="#p" />
<use x="64" y="312" xlink:href="#p" />
<use x="64" y="320" xlink:href="#p" />
<use x="64" y="336" xlink:href="#p" />
<use x="64" y="368" xlink:href="#p" />
<use x="64" y="384" xlink:href="#p" />
<use x="64" y="400" xlink:href="#p" />
<use x="64" y="416" xlink:href="#p" />
<use x="64" y="432" xlink:href="#p" />
<use x="64" y="440" xlink:href="#p" />
<use x="64" y="464" xlink:href="#p" />
<use x="64" y="480" xlink:href="#p" />
<use x="64" y="488" xlink:href="#p" />
<use x="64" y="496" xlink:href="#p" />
<use x="64" y="512" xlink:href="#p" />
<use x="72" y="32" xlink:href="#p" />
<use x="72" y="80" xlink:href="#p" />
<use x="72" y="136" xlink:href="#p" />
<use x="72" y="168" xlink:href="#p" />
<use x="72" y="176" xlink:href="#p" />
<use x="72" y="216" xlink:href="#p" />
<use x="72" y="224" xlink:href="#p" />
<use x="72" y="256" xlink:href="#p" />
<use x="72" y="288" xlink:href="#p" />
<use x="72" y="296" xlink:href="#p" />
<use x="72" y="312" xlink:href="#p" />
<use x="72" y="320" xlink:href="#p" />
<use x="72" y="328" xlink:href="#p" />
<use x="72" y="336" xlink:href="#p" />
<use x="72" y="344" xlink:href="#p" />
<use x="72" y="352" xlink:href="#p" />
<use x="72" y="368" xlink:href="#p" />
<use x="72" y="376" xlink:href="#p" />
<use x="72" y="400" xlink:href="#p" />
<use x="72" y="408" xlink:href="#p" />
<use x="72" y="416" xlink:href="#p" />
<use x="72" y="432" xlink:href="#p" />
<use x="72" y="464" xlink:href="#p" />
<use x="72" y="512" xlink:href="#p" />
<use x="80" y="32" xlink:href="#p" />
<use x="80" y="40" xlink:href="#p" />
<use x="80" y="48" xlink:href="#p" />
<use x="80" y="56" xlink:href="#p" />
<use x="80" y="64" xlink:href="#p" />
<use x="80" y="72" xlink:href="#p" />
<use x="80" y="80" xlink:href="#p" />
<use x="80" y="96" xlink:href="#p" />
<use x="80" y="112" xlink:href="#p" />
<use x="80" y="128" xlink:href="#p" />
<use x="80" y="144" xlink:href="#p" />
<use x="80" y="160" xlink:href="#p" />
<use x="80" y="176" xlink:href="#p" />
<use x="80" y="192" xlink:href="#p" />
<use x="80" y="208" xlink:href="#p" />
<use x="80" y="224" xlink:href="#p" />
<use x="80" y="240" xlink:href="#p" />
<use x="80" y="256" xlink:href="#p" />
<use x="80" y="272" xlink:href="#p" />
<use x="80" y="288" xlink:href="#p" />
<use x="80" y="304" xlink:href="#p" />
<use x="80" y="320" xlink:href="#p" />
<use x="80" y="336" xlink:href="#p" />
<use x="80" y="352" xlink:href="#p" />
<use x="80" y="368" xlink:href="#p" />
<use x="80" y="384" xlink:href="#p" />
<use x="80" y="400" xlink:href="#p" />
<use x="80" y="416" xlink:href="#p" />
<use x="80" y="432" xlink:href="#p" />
<use x="80" y="448" xlink:href="#p" />
<use x="80" y="464" xlink:href="#p" />
<use x="80" y="472" xlink:href="#p" />
<use x="80" y="480" xlink:href="#p" />
<use x="80" y="488" xlink:href="#p" />
<use x="80" y="496" xlink:href="#p" />
<use x="80" y="504" xlink:href="#p" />
<use x="80" y="512" xlink:href="#p" />
<use x="88" y="112" xlink:href="#p" />
<use x="88" y="120" xlink:href="#p" />
<use x="88" y="128" xlink:href="#p" />
<use x="88" y="144" xlink:href="#p" />
<use x="88" y="152" xlink:href="#p" />
<use x="88" y="168" xlink:href="#p" />
<use x="88" y="176" xlink:href="#p" />
<use x="88" y="184" xlink:href="#p" />
<use x="88" y="192" xlink:href="#p" />
<use x="88" y="200" xlink:href="#p" />
<use x="88" y="208" xlink:href="#p" />
<use x="88" y="224" xlink:href="#p" />
<use x="88" y="232" xlink:href="#p" />
<use x="88" y="240" xlink:href="#p" />
<use x="88" y="256" xlink:href="#p" />
<use x="88" y="288" xlink:href="#p" />
<use x="88" y="312" xlink:href="#p" />
<use x="88" y="320" xlink:href="#p" />
<use x="88" y="336" xlink:href="#p" />
<use x="88" y="344" xlink:href="#p" />
<use x="88" y="352" xlink:href="#p" />
<use x="88" y="376" xlink:href="#p" />
<use x="88" y="392" xlink:href="#p" />
<use x="88" y="416" xlink:href="#p" />
<use x="88" y="424" xlink:href="#p" />
<use x="88" y="432" xlink:href="#p" />
<use x="88" y="448" xlink:href="#p" />
<use x="96" y="32" xlink:href="#p" />
<use x="96" y="48" xlink:href="#p" />
<use x="96" y="56" xlink:href="#p" />
<use x="96" y="64" xlink:href="#p" />
<use x="96" y="80" xlink:href="#p" />
<use x="96" y="96" xlink:href="#p" />
<use x="96" y="104" xlink:href="#p" />
<use x="96" y="120" xlink:href="#p" />
<use x="96" y="144" xlink:href="#p" />
<use x="96" y="176" xlink:href="#p" />
<use x="96" y="192" xlink:href="#p" />
<use x="96" y="216" xlink:href="#p" />
<use x="96" y="224" xlink:href="#p" />
<use x="96" y="232" xlink:href="#p" />
<use x="96" y="240" xlink:href="#p" />
<use x="96" y="248" xlink:href="#p" />
<use x="96" y="256" xlink:href="#p" />
<use x="96" y="264" xlink:href="#p" />
<use x="96" y="272" xlink:href="#p" />
<use x="96" y="280" xlink:href="#p" />
<use x="96" y="288" xlink:href="#p" />
<use x="96" y="320" xlink:href="#p" />
<use x="96" y="328" xlink:href="#p" />
<use x="96" y="392" xlink:href="#p" />
<use x="96" y="400" xlink:href="#p" />
<use x="96" y="408" xlink:href="#p" />
<use x="96" y="424" xlink:href="#p" />
<use x="96" y="448" xlink:href="#p" />
<use x="96" y="456" xlink:href="#p" />
<use x="96" y="488" xlink:href="#p" />
<use x="96" y="496" xlink:href="#p" />
<use x="96" y="504" xlink:href="#p" />
<use x="96" y="512" xlink:href="#p" />
<use x="104" y="40" xlink:href="#p" />
<use x="104" y="48" xlink:href="#p" />
<use x="104" y="56" xlink:href="#p" />
<use x="104" y="64" xlink:href="#p" />
<use x="104" y="72" xlink:href="#p" />
<use x="104" y="96" xlink:href="#p" />
<use x="104" y="112" xlink:href="#p" />
<use x="104" y="120" xlink:href="#p" />
<use x="104" y="160" xlink:href="#p" />
<use x="104" y="176" xlink:href="#p" />
<use x="104" y="184" xlink:href="#p" />
<use x="104" y="208" xlink:href="#p" />
<use x="104" y="232" xlink:href="#p" />
<use x="104" y="240" xlink:href="#p" />
<use x="104" y="256" xlink:href="#p" />
<use x="104" y="264" xlink:href="#p" />
<use x="104" y="296" xlink:href="#p" />
<use x="104" y="304" xlink:href="#p" />
<use x="104" y="312" xlink:href="#p" />
<use x="104" y="320" xlink:href="#p" />
<use x="104" y="328" xlink:href="#p" />
<use x="104" y="360" xlink:href="#p" />
<use x="104" y="376" xlink:href="#p" />
<use x="104" y="400" xlink:href="#p" />
<use x="104" y="408" xlink:href="#p" />
<use x="104" y="424" xlink:href="#p" />
<use x="104" y="432" xlink:href="#p" />
<use x="104" y="440" xlink:href="#p" />
<use x="104" y="488" xlink:href="#p" />
<use x="104" y="496" xlink:href="#p" />
<use x="104" y="512" xlink:href="#p" />
<use x="112" y="32" xlink:href="#p" />
<use x="112" y="40" xlink:href="#p" />
<use x="112" y="56" xlink:href="#p" />
<use x="112" y="80" xlink:href="#p" />
<use x="112" y="104" xlink:href="#p" />
<use x="112" y="136" xlink:href="#p" />
<use x="112" y="144" xlink:href="#p" />
<use x="112" y="160" xlink:href="#p" />
<use x="112" y="168" xlink:href="#p" />
<use x="112" y="184" xlink:href="#p" />
<use x="112" y="192" xlink:href="#p" />
<use x="112" y="208" xlink:href="#p" />
<use x="112" y="216" xlink:href="#p" />
<use x="112" y="224" xlink:href="#p" />
<use x="112" y="232" xlink:href="#p" />
<use x="112" y="248" xlink:href="#p" />
<use x="112" y="272" xlink:href="#p" />
<use x="112" y="288" xlink:href="#p" />
<use x="112" y="360" xlink:href="#p" />
<use x="112" y="400" xlink:href="#p" />
<use x="112" y="416" xlink:href="#p" />
<use x="112" y="424" xlink:href="#p" />
<use x="112" y="432" xlink:href="#p" />
<use x="112" y="448" xlink:href="#p" />
<use x="112" y="464" xlink:href="#p" />
<use x="112" y="472" xlink:href="#p" />
<use x="112" y="488" xlink:href="#p" />
<use x="112" y="496" xlink:href="#p" />
<use x="112" y="512" xlink:href="#p" />
<use x="120" y="32" xlink:href="#p" />
<use x="120" y="40" xlink:href="#p" />
<use x="120" y="48" xlink:href="#p" />
<use x="120" y="56" xlink:href="#p" />
<use x="120" y="88" xlink:href="#p" />
<use x="120" y="96" xlink:href="#p" />
<use x="120" y="104" xlink:href="#p" />
<use x="120" y="112" xlink:href="#p" />
<use x="120" y="120" xlink:href="#p" />
<use x="120" y="128" xlink:href="#p" />
<use x="120" y="160" xlink:href="#p" />
<use x="120" y="168" xlink:href="#p" />
<use x="120" y="192" xlink:href="#p" />
<use x="120" y="208" xlink:href="#p" />
<use x="120" y="232" xlink:href="#p" />
<use x="120" y="240" xlink:href="#p" />
<use x="120" y="248" xlink:href="#p" />
<use x="120" y="256" xlink:href="#p" />
<use x="120" y="272" xlink:href="#p" />
<use x="120" y="280" xlink:href="#p" />
<use x="120" y="304" xlink:href="#p" />
<use x="120" y="352" xlink:href="#p" />
<use x="120" y="368" xlink:href="#p" />
<use x="120" y="392" xlink:href="#p" />
<use x="120" y="400" xlink:href="#p" />
<use x="120" y="416" xlink:href="#p" />
<use x="120" y="424" xlink:href="#p" />
<use x="120" y="440" xlink:href="#p" />
<use x="120" y="448" xlink:href="#p" />
<use x="120" y="472" xlink:href="#p" />
<use x="120" y="480" xlink:href="#p" />
<use x="120" y="488" xlink:href="#p" />
<use x="120" y="496" xlink:href="#p" />
<use x="128" y="32" xlink:href="#p" />
<use x="128" y="48" xlink:href="#p" />
<use x="128" y="80" xlink:href="#p" />
<use x="128" y="88" xlink:href="#p" />
<use x="128" y="96" xlink:href="#p" />
<use x="128" y="112" xlink:href="#p" />
<use x="128" y="128" xlink:href="#p" />
<use x="128" y="136" xlink:href="#p" />
<use x="128" y="152" xlink:href="#p" />
<use x="128" y="160" xlink:href="#p" />
<use x="128" y="192" xlink:href="#p" />
<use x="128" y="200" xlink:href="#p" />
<use x="128" y="208" xlink:href="#p" />
<use x="128" y="216" xlink:href="#p" />
<use x="128" y="288" xlink:href="#p" />
<use x="128" y="296" xlink:href="#p" />
<use x="128" y="312" xlink:href="#p" />
<use x="128" y="320" xlink:href="#p" />
<use x="128" y="344" xlink:href="#p" />
<use x="128" y="352" xlink:href="#p" />
<use x="128" y="360" xlink:href="#p" />
<use x="128" y="392" xlink:href="#p" />
<use x="128" y="400" xlink:href="#p" />
<use x="128" y="424" xlink:href="#p" />
<use x="128" y="448" xlink:href="#p" />
<use x="128" y="456" xlink:href="#p" />
<use x="128" y="464" xlink:href="#p" />
<use x="128" y="480" xlink:href="#p" />
<use x="128" y="496" xlink:href="#p" />
<use x="128" y="512" xlink:href="#p" />
<use x="136" y="32" xlink:href="#p" />
<use x="136" y="40" xlink:href="#p" />
<use x="136" y="64" xlink:href="#p" />
<use x="136" y="96" xlink:href="#p" />
<use x="136" y="120" xlink:href="#p" />
<use x="136" y="136" xlink:href="#p" />
<use x="136" y="160" xlink:href="#p" />
<use x="136" y="168" xlink:href="#p" />
<use x="136" y="176" xlink:href="#p" />
<use x="136" y="192" xlink:href="#p" />
<use x="136" y="232" xlink:href="#p" />
<use x="136" y="248" xlink:href="#p" />
<use x="136" y="280" xlink:href="#p" />
<use x="136" y="288" xlink:href="#p" />
<use x="136" y="304" xlink:href="#p" />
<use x="136" y="328" xlink:href="#p" />
<use x="136" y="336" xlink:href="#p" />
<use x="136" y="360" xlink:href="#p" />
<use x="136" y="376" xlink:href="#p" />
<use x="136" y="384" xlink:href="#p" />
<use x="136" y="400" xlink:href="#p" />
<use x="136" y="408" xlink:href="#p" />
<use x="136" y="416" xlink:href="#p" />
<use x="136" y="424" xlink:href="#p" />
<use x="136" y="432" xlink:href="#p" />
<use x="136" y="440" xlink:href="#p" />
<use x="136" y="448" xlink:href="#p" />
<use x="136" y="472" xlink:href="#p" />
<use x="136" y="496" xlink:href="#p" />
<use x="136" y="504" xlink:href="#p" />
<use x="136" y="512" xlink:href="#p" />
<use x="144" y="40" xlink:href="#p" />
<use x="144" y="80" xlink:href="#p" />
<use x="144" y="88" xlink:href="#p" />
<use x="144" y="104" xlink:href="#p" />
<use x="144" y="120" xlink:href="#p" />
<use x="144" y="144" xlink:href="#p" />
<use x="144" y="152" xlink:href="#p" />
<use x="144" y="176" xlink:href="#p" />
<use x="144" y="184" xlink:href="#p" />
<use x="144" y="200" xlink:href="#p" />
<use x="144" y="224" xlink:href="#p" />
<use x="144" y="232" xlink:href="#p" />
<use x="144" y="248" xlink:href="#p" />
<use x="144" y="256" xlink:href="#p" />
<use x="144" y="272" xlink:href="#p" />
<use x="144" y="288" xlink:href="#p" />
<use x="144" y="304" xlink:href="#p" />
<use x="144" y="384" xlink:href="#p" />
<use x="144" y="400" xlink:href="#p" />
<use x="144" y="424" xlink:href="#p" />
<use x="144" y="432" xlink:href="#p" />
<use x="144" y="448" xlink:href="#p" />
<use x="144" y="456" xlink:href="#p" />
<use x="144" y="464" xlink:href="#p" />
<use x="144" y="480" xlink:href="#p" />
<use x="144" y="496" xlink:href="#p" />
<use x="144" y="512" xlink:href="#p" />
<use x="152" y="32" xlink:href="#p" />
<use x="152" y="40" xlink:href="#p" />
<use x="152" y="96" xlink:href="#p" />
<use x="152" y="104" xlink:href="#p" />
<use x="152" y="112" xlink:href="#p" />
<use x="152" y="120" xlink:href="#p" />
<use x="152" y="128" xlink:href="#p" />
<use x="152" y="136" xlink:href="#p" />
<use x="152" y="168" xlink:href="#p" />
<use x="152" y="176" xlink:href="#p" />
<use x="152" y="184" xlink:href="#p" />
<use x="152" y="192" xlink:href="#p" />
<use x="152" y="200" xlink:href="#p" />
<use x="152" y="208" xlink:href="#p" />
<use x="152" y="216" xlink:href="#p" />
<use x="152" y="264" xlink:href="#p" />
<use x="152" y="272" xlink:href="#p" />
<use x="152" y="280" xlink:href="#p" />
<use x="152" y="288" xlink:href="#p" />
<use x="152" y="296" xlink:href="#p" />
<use x="152" y="304" xlink:href="#p" />
<use x="152" y="320" xlink:href="#p" />
<use x="152" y="352" xlink:href="#p" />
<use x="152" y="376" xlink:href="#p" />
<use x="152" y="384" xlink:href="#p" />
<use x="152" y="400" xlink:href="#p" />
<use x="152" y="416" xlink:href="#p" />
<use x="152" y="424" xlink:href="#p" />
<use x="152" y="456" xlink:href="#p" />
<use x="152" y="464" xlink:href="#p" />
<use x="152" y="472" xlink:href="#p" />
<use x="152" y="480" xlink:href="#p" />
<use x="152" y="488" xlink:href="#p" />
<use x="152" y="504" xlink:href="#p" />
<use x="152" y="512" xlink:href="#p" />
<use x="160" y="48" xlink:href="#p" />
<use x="160" y="56" xlink:href="#p" />
<use x="160" y="72" xlink:href="#p" />
<use x="160" y="80" xlink:href="#p" />
<use x="160" y="88" xlink:href="#p" />
<use x="160" y="120" xlink:href="#p" />
<use x="160" y="144" xlink:href="#p" />
<use x="160" y="152" xlink:href="#p" />
<use x="160" y="176" xlink:href="#p" />
<use x="160" y="184" xlink:href="#p" />
<use x="160" y="224" xlink:href="#p" />
<use x="160" y="264" xlink:href="#p" />
<use x="160" y="288" xlink:href="#p" />
<use x="160" y="312" xlink:href="#p" />
<use x="160" y="320" xlink:href="#p" />
<use x="160" y="352" xlink:href="#p" />
<use x="160" y="360" xlink:href="#p" />
<use x="160" y="368" xlink:href="#p" />
<use x="160" y="384" xlink:href="#p" />
<use x="160" y="424" xlink:href="#p" />
<use x="160" y="440" xlink:href="#p" />
<use x="160" y="448" xlink:href="#p" />
<use x="160" y="456" xlink:href="#p" />
<use x="160" y="504" xlink:href="#p" />
<use x="168" y="48" xlink:href="#p" />
<use x="168" y="56" xlink:href="#p" />
<use x="168" y="72" xlink:href="#p" />
<use x="168" y="88" xlink:href="#p" />
<use x="168" y="96" xlink:href="#p" />
<use x="168" y="120" xlink:href="#p" />
<use x="168" y="128" xlink:href="#p" />
<use x="168" y="160" xlink:href="#p" />
<use x="168" y="168" xlink:href="#p" />
<use x="168" y="176" xlink:href="#p" />
<use x="168" y="184" xlink:href="#p" />
<use x="168" y="200" xlink:href="#p" />
<use x="168" y="208" xlink:href="#p" />
<use x="168" y="216" xlink:href="#p" />
<use x="168" y="256" xlink:href="#p" />
<use x="168" y="312" xlink:href="#p" />
<use x="168" y="320" xlink:href="#p" />
<use x="168" y="336" xlink:href="#p" />
<use x="168" y="376" xlink:href="#p" />
<use x="168" y="384" xlink:href="#p" />
<use x="168" y="392" xlink:href="#p" />
<use x="168" y="400" xlink:href="#p" />
<use x="168" y="432" xlink:href="#p" />
<use x="168" y="440" xlink:href="#p" />
<use x="168" y="456" xlink:href="#p" />
<use x="168" y="488" xlink:href="#p" />
<use x="168" y="512" xlink:href="#p" />
<use x="176" y="56" xlink:href="#p" />
<use x="176" y="72" xlink:href="#p" />
<use x="176" y="80" xlink:href="#p" />
<use x="176" y="88" xlink:href="#p" />
<use x="176" y="96" xlink:href="#p" />
<use x="176" y="104" xlink:href="#p" />
<use x="176" y="128" xlink:href="#p" />
<use x="176" y="136" xlink:href="#p" />
<use x="176" y="152" xlink:href="#p" />
<use x="176" y="168" xlink:href="#p" />
<use x="176" y="176" xlink:href="#p" />
<use x="176" y="224" xlink:href="#p" />
<use x="176" y="272" xlink:href="#p" />
<use x="176" y="304" xlink:href="#p" />
<use x="176" y="320" xlink:href="#p" />
<use x="176" y="328" xlink:href="#p" />
<use x="176" y="336" xlink:href="#p" />
<use x="176" y="352" xlink:href="#p" />
<use x="176" y="376" xlink:href="#p" />
<use x="176" y="392" xlink:href="#p" />
<use x="176" y="416" xlink:href="#p" />
<use x="176" y="424" xlink:href="#p" />
<use x="176" y="440" xlink:href="#p" />
<use x="176" y="456" xlink:href="#p" />
<use x="176" y="464" xlink:href="#p" />
<use x="176" y="488" xlink:href="#p" />
<use x="176" y="512" xlink:href="#p" />
<use x="184" y="40" xlink:href="#p" />
<use x="184" y="48" xlink:href="#p" />
<use x="184" y="64" xlink:href="#p" />
<use x="184" y="88" xlink:href="#p" />
<use x="184" y="112" xlink:href="#p" />
<use x="184" y="120" xlink:href="#p" />
<use x="184" y="136" xlink:href="#p" />
<use x="184" y="160" xlink:href="#p" />
<use x="184" y="168" xlink:href="#p" />
<use x="184" y="184" xlink:href="#p" />
<use x="184" y="200" xlink:href="#p" />
<use x="184" y="208" xlink:href="#p" />
<use x="184" y="216" xlink:href="#p" />
<use x="184" y="232" xlink:href="#p" />
<use x="184" y="240" xlink:href="#p" />
<use x="184" y="248" xlink:href="#p" />
<use x="184" y="256" xlink:href="#p" />
<use x="184" y="312" xlink:href="#p" />
<use x="184" y="328" xlink:href="#p" />
<use x="184" y="336" xlink:href="#p" />
<use x="184" y="352" xlink:href="#p" />
<use x="184" y="360" xlink:href="#p" />
<use x="184" y="368" xlink:href="#p" />
<use x="184" y="392" xlink:href="#p" />
<use x="184" y="400" xlink:href="#p" />
<use x="184" y="408" xlink:href="#p" />
<use x="184" y="416" xlink:href="#p" />
<use x="184" y="432" xlink:href="#p" />
<use x="184" y="456" xlink:href="#p" />
<use x="184" y="472" xlink:href="#p" />
<use x="184" y="480" xlink:href="#p" />
<use x="184" y="488" xlink:href="#p" />
<use x="192" y="56" xlink:href="#p" />
<use x="192" y="64" xlink:href="#p" />
<use x="192" y="80" xlink:href="#p" />
<use x="192" y="88" xlink:href="#p" />
<use x="192" y="112" xlink:href="#p" />
<use x="192" y="136" xlink:href="#p" />
<use x="192" y="144" xlink:href="#p" />
<use x="192" y="184" xlink:href="#p" />
<use x="192" y="192" xlink:href="#p" />
<use x="192" y="208" xlink:href="#p" />
<use x="192" y="240" xlink:href="#p" />
<use x="192" y="248" xlink:href="#p" />
<use x="192" y="256" xlink:href="#p" />
<use x="192" y="272" xlink:href="#p" />
<use x="192" y="280" xlink:href="#p" />
<use x="192" y="288" xlink:href="#p" />
<use x="192" y="304" xlink:href="#p" />
<use x="192" y="328" xlink:href="#p" />
<use x="192" y="352" xlink:href="#p" />
<use x="192" y="376" xlink:href="#p" />
<use x="192" y="400" xlink:href="#p" />
<use x="192" y="416" xlink:href="#p" />
<use x="192" y="424" xlink:href="#p" />
<use x="192" y="472" xlink:href="#p" />
<use x="192" y="488" xlink:href="#p" />
<use x="192" y="504" xlink:href="#p" />
<use x="200" y="32" xlink:href="#p" />
<use x="200" y="72" xlink:href="#p" />
<use x="200" y="88" xlink:href="#p" />
<use x="200" y="96" xlink:href="#p" />
<use x="200" y="120" xlink:href="#p" />
<use x="200" y="128" xlink:href="#p" />
<use x="200" y="136" xlink:href="#p" />
<use x="200" y="168" xlink:href="#p" />
<use x="200" y="176" xlink:href="#p" />
<use x="200" y="192" xlink:href="#p" />
<use x="200" y="200" xlink:href="#p" />
<use x="200" y="256" xlink:href="#p" />
<use x="200" y="288" xlink:href="#p" />
<use x="200" y="296" xlink:href="#p" />
<use x="200" y="304" xlink:href="#p" />
<use x="200" y="312" xlink:href="#p" />
<use x="200" y="328" xlink:href="#p" />
<use x="200" y="360" xlink:href="#p" />
<use x="200" y="368" xlink:href="#p" />
<use x="200" y="376" xlink:href="#p" />
<use x="200" y="384" xlink:href="#p" />
<use x="200" y="392" xlink:href="#p" />
<use x="200" y="408" xlink:href="#p" />
<use x="200" y="416" xlink:href="#p" />
<use x="200" y="424" xlink:href="#p" />
<use x="200" y="440" xlink:href="#p" />
<use x="200" y="448" xlink:href="#p" />
<use x="200" y="456" xlink:href="#p" />
<use x="200" y="464" xlink:href="#p" />
<use x="208" y="64" xlink:href="#p" />
<use x="208" y="80" xlink:href="#p" />
<use x="208" y="88" xlink:href="#p" />
<use x="208" y="96" xlink:href="#p" />
<use x="208" y="112" xlink:href="#p" />
<use x="208" y="136" xlink:href="#p" />
<use x="208" y="144" xlink:href="#p" />
<use x="208" y="168" xlink:href="#p" />
<use x="208" y="184" xlink:href="#p" />
<use x="208" y="192" xlink:href="#p" />
<use x="208" y="200" xlink:href="#p" />
<use x="208" y="248" xlink:href="#p" />
<use x="208" y="264" xlink:href="#p" />
<use x="208" y="272" xlink:href="#p" />
<use x="208" y="280" xlink:href="#p" />
<use x="208" y="312" xlink:href="#p" />
<use x="208" y="328" xlink:href="#p" />
<use x="208" y="344" xlink:href="#p" />
<use x="208" y="376" xlink:href="#p" />
<use x="208" y="384" xlink:href="#p" />
<use x="208" y="408" xlink:href="#p" />
<use x="208" y="432" xlink:href="#p" />
<use x="208" y="440" xlink:href="#p" />
<use x="208" y="464" xlink:href="#p" />
<use x="208" y="472" xlink:href="#p" />
<use x="208" y="480" xlink:href="#p" />
<use x="208" y="488" xlink:href="#p" />
<use x="208" y="496" xlink:href="#p" />
<use x="208" y="504" xlink:href="#p" />
<use x="216" y="32" xlink:href="#p" />
<use x="216" y="40" xlink:href="#p" />
<use x="216" y="48" xlink:href="#p" />
<use x="216" y="88" xlink:href="#p" />
<use x="216" y="104" xlink:href="#p" />
<use x="216" y="120" xlink:href="#p" />
<use x="216" y="128" xlink:href="#p" />
<use x="216" y="144" xlink:href="#p" />
<use x="216" y="152" xlink:href="#p" />
<use x="216" y="176" xlink:href="#p" />
<use x="216" y="184" xlink:href="#p" />
<use x="216" y="192" xlink:href="#p" />
<use x="216" y="200" xlink:href="#p" />
<use x="216" y="216" xlink:href="#p" />
<use x="216" y="224" xlink:href="#p" />
<use x="216" y="240" xlink:href="#p" />
<use x="216" y="256" xlink:href="#p" />
<use x="216" y="264" xlink:href="#p" />
<use x="216" y="296" xlink:href="#p" />
<use x="216" y="304" xlink:href="#p" />
<use x="216" y="312" xlink:href="#p" />
<use x="216" y="336" xlink:href="#p" />
<use x="216" y="344" xlink:href="#p" />
<use x="216" y="392" xlink:href="#p" />
<use x="216" y="400" xlink:href="#p" />
<use x="216" y="416" xlink:href="#p" />
<use x="216" y="424" xlink:href="#p" />
<use x="216" y="432" xlink:href="#p" />
<use x="216" y="456" xlink:href="#p" />
<use x="216" y="464" xlink:href="#p" />
<use x="216" y="472" xlink:href="#p" />
<use x="216" y="488" xlink:href="#p" />
<use x="216" y="504" xlink:href="#p" />
<use x="224" y="40" xlink:href="#p" />
<use x="224" y="48" xlink:href="#p" />
<use x="224" y="56" xlink:href="#p" />
<use x="224" y="72" xlink:href="#p" />
<use x="224" y="80" xlink:href="#p" />
<use x="224" y="104" xlink:href="#p" />
<use x="224" y="112" xlink:href="#p" />
<use x="224" y="144" xlink:href="#p" />
<use x="224" y="176" xlink:href="#p" />
<use x="224" y="200" xlink:href="#p" />
<use x="224" y="208" xlink:href="#p" />
<use x="224" y="216" xlink:href="#p" />
<use x="224" y="224" xlink:href="#p" />
<use x="224" y="240" xlink:href="#p" />
<use x="224" y="256" xlink:href="#p" />
<use x="224" y="280" xlink:href="#p" />
<use x="224" y="304" xlink:href="#p" />
<use x="224" y="312" xlink:href="#p" />
<use x="224" y="320" xlink:href="#p" />
<use x="224" y="336" xlink:href="#p" />
<use x="224" y="344" xlink:href="#p" />
<use x="224" y="352" xlink:href="#p" />
<use x="224" y="368" xlink:href="#p" />
<use x="224" y="376" xlink:href="#p" />
<use x="224" y="392" xlink:href="#p" />
<use x="224" y="416" xlink:href="#p" />
<use x="224" y="440" xlink:href="#p" />
<use x="224" y="472" xlink:href="#p" />
<use x="224" y="488" xlink:href="#p" />
<use x="232" y="48" xlink:href="#p" />
<use x="232" y="56" xlink:href="#p" />
<use x="232" y="72" xlink:href="#p" />
<use x="232" y="88" xlink:href="#p" />
<use x="232" y="96" xlink:href="#p" />
<use x="232" y="104" xlink:href="#p" />
<use x="232" y="120" xlink:href="#p" />
<use x="232" y="128" xlink:href="#p" />
<use x="232" y="152" xlink:href="#p" />
<use x="232" y="168" xlink:href="#p" />
<use x="232" y="184" xlink:href="#p" />
<use x="232" y="208" xlink:href="#p" />
<use x="232" y="216" xlink:href="#p" />
<use x="232" y="224" xlink:href="#p" />
<use x="232" y="256" xlink:href="#p" />
<use x="232" y="264" xlink:href="#p" />
<use x="232" y="296" xlink:href="#p" />
<use x="232" y="304" xlink:href="#p" />
<use x="232" y="320" xlink:href="#p" />
<use x="232" y="336" xlink:href="#p" />
<use x="232" y="344" xlink:href="#p" />
<use x="232" y="384" xlink:href="#p" />
<use x="232" y="400" xlink:href="#p" />
<use x="232" y="408" xlink:href="#p" />
<use x="232" y="416" xlink:href="#p" />
<use x="232" y="464" xlink:href="#p" />
<use x="240" y="32" xlink:href="#p" />
<use x="240" y="40" xlink:href="#p" />
<use x="240" y="48" xlink:href="#p" />
<use x="240" y="64" xlink:href="#p" />
<use x="240" y="80" xlink:href="#p" />
<use x="240" y="88" xlink:href="#p" />
<use x="240" y="136" xlink:href="#p" />
<use x="240" y="144" xlink:href="#p" />
<use x="240" y="152" xlink:href="#p" />
<use x="240" y="160" xlink:href="#p" />
<use x="240" y="216" xlink:href="#p" />
<use x="240" y="224" xlink:href="#p" />
<use x="240" y="232" xlink:href="#p" />
<use x="240" y="248" xlink:href="#p" />
<use x="240" y="256" xlink:href="#p" />
<use x="240" y="272" xlink:href="#p" />
<use x="240" y="304" xlink:href="#p" />
<use x="240" y="328" xlink:href="#p" />
<use x="240" y="352" xlink:href="#p" />
<use x="240" y="368" xlink:href="#p" />
<use x="240" y="376" xlink:href="#p" />
<use x="240" y="392" xlink:href="#p" />
<use x="240" y="400" xlink:href="#p" />
<use x="240" y="424" xlink:href="#p" />
<use x="240" y="432" xlink:href="#p" />
<use x="240" y="448" xlink:href="#p" />
<use x="240" y="456" xlink:href="#p" />
<use x="240" y="464" xlink:href="#p" />
<use x="240" y="480" xlink:href="#p" />
<use x="248" y="32" xlink:href="#p" />
<use x="248" y="48" xlink:href="#p" />
<use x="248" y="56" xlink:href="#p" />
<use x="248" y="104" xlink:href="#p" />
<use x="248" y="120" xlink:href="#p" />
<use x="248" y="128" xlink:href="#p" />
<use x="248" y="136" xlink:href="#p" />
<use x="248" y="144" xlink:href="#p" />
<use x="248" y="160" xlink:href="#p" />
<use x="248" y="184" xlink:href="#p" />
<use x="248" y="192" xlink:href="#p" />
<use x="248" y="200" xlink:href="#p" />
<use x="248" y="240" xlink:href="#p" />
<use x="248" y="248" xlink:href="#p" />
<use x="248" y="256" xlink:href="#p" />
<use x="248" y="272" xlink:href="#p" />
<use x="248" y="296" xlink:href="#p" />
<use x="248" y="320" xlink:href="#p" />
<use x="248" y="328" xlink:href="#p" />
<use x="248" y="352" xlink:href="#p" />
<use x="248" y="368" xlink:href="#p" />
<use x="248" y="392" xlink:href="#p" />
<use x="248" y="400" xlink:href="#p" />
<use x="248" y="408" xlink:href="#p" />
<use x="248" y="448" xlink:href="#p" />
<use x="248" y="488" xlink:href="#p" />
<use x="256" y="48" xlink:href="#p" />
<use x="256" y="56" xlink:href="#p" />
<use x="256" y="64" xlink:href="#p" />
<use x="256" y="72" xlink:href="#p" />
<use x="256" y="80" xlink:href="#p" />
<use x="256" y="88" xlink:href="#p" />
<use x="256" y="96" xlink:href="#p" />
<use x="256" y="128" xlink:href="#p" />
<use x="256" y="136" xlink:href="#p" />
<use x="256" y="144" xlink:href="#p" />
<use x="256" y="168" xlink:href="#p" />
<use x="256" y="176" xlink:href="#p" />
<use x="256" y="192" xlink:href="#p" />
<use x="256" y="208" xlink:href="#p" />
<use x="256" y="216" xlink:href="#p" />
<use x="256" y="232" xlink:href="#p" />
<use x="256" y="240" xlink:href="#p" />
<use x="256" y="256" xlink:href="#p" />
<use x="256" y="264" xlink:href="#p" />
<use x="256" y="272" xlink:href="#p" />
<use x="256" y="280" xlink:href="#p" />
<use x="256" y="288" xlink:href="#p" />
<use x="256" y="296" xlink:href="#p" />
<use x="256" y="312" xlink:href="#p" />
<use x="256" y="328" xlink:href="#p" />
<use x="256" y="336" xlink:href="#p" />
<use x="256" y="344" xlink:href="#p" />
<use x="256" y="376" xlink:href="#p" />
<use x="256" y="384" xlink:href="#p" />
<use x="256" y="392" xlink:href="#p" />
<use x="256" y="416" xlink:href="#p" />
<use x="256" y="424" xlink:href="#p" />
<use x="256" y="448" xlink:href="#p" />
<use x="256" y="456" xlink:href="#p" />
<use x="256" y="464" xlink:href="#p" />
<use x="256" y="472" xlink:href="#p" />
<use x="256" y="480" xlink:href="#p" />
<use x="256" y="488" xlink:href="#p" />
<use x="256" y="504" xlink:href="#p" />
<use x="264" y="48" xlink:href="#p" />
<use x="264" y="64" xlink:href="#p" />
<use x="264" y="96" xlink:href="#p" />
<use x="264" y="104" xlink:href="#p" />
<use x="264" y="112" xlink:href="#p" />
<use x="264" y="120" xlink:href="#p" />
<use x="264" y="128" xlink:href="#p" />
<use x="264" y="136" xlink:href="#p" />
<use x="264" y="144" xlink:href="#p" />
<use x="264" y="168" xlink:href="#p" />
<use x="264" y="216" xlink:href="#p" />
<use x="264" y="248" xlink:href="#p" />
<use x="264" y="256" xlink:href="#p" />
<use x="264" y="288" xlink:href="#p" />
<use x="264" y="320" xlink:href="#p" />
<use x="264" y="328" xlink:href="#p" />
<use x="264" y="336" xlink:href="#p" />
<use x="264" y="352" xlink:href="#p" />
<use x="264" y="360" xlink:href="#p" />
<use x="264" y="384" xlink:href="#p" />
<use x="264" y="440" xlink:href="#p" />
<use x="264" y="448" xlink:href="#p" />
<use x="264" y="480" xlink:href="#p" />
<use x="272" y="32" xlink:href="#p" />
<use x="272" y="64" xlink:href="#p" />
<use x="272" y="80" xlink:href="#p" />
<use x="272" y="96" xlink:href="#p" />
<use x="272" y="112" xlink:href="#p" />
<use x="272" y="128" xlink:href="#p" />
<use x="272" y="152" xlink:href="#p" />
<use x="272" y="200" xlink:href="#p" />
<use x="272" y="208" xlink:href="#p" />
<use x="272" y="248" xlink:href="#p" />
<use x="272" y="256" xlink:href="#p" />
<use x="272" y="272" xlink:href="#p" />
<use x="272" y="288" xlink:href="#p" />
<use x="272" y="296" xlink:href="#p" />
<use x="272" y="304" xlink:href="#p" />
<use x="272" y="312" xlink:href="#p" />
<use x="272" y="336" xlink:href="#p" />
<use x="272" y="360" xlink:href="#p" />
<use x="272" y="400" xlink:href="#p" />
<use x="272" y="416" xlink:href="#p" />
<use x="272" y="424" xlink:href="#p" />
<use x="272" y="440" xlink:href="#p" />
<use x="272" y="448" xlink:href="#p" />
<use x="272" y="464" xlink:href="#p" />
<use x="272" y="480" xlink:href="#p" />
<use x="272" y="488" xlink:href="#p" />
<use x="272" y="504" xlink:href="#p" />
<use x="280" y="40" xlink:href="#p" />
<use x="280" y="48" xlink:href="#p" />
<use x="280" y="64" xlink:href="#p" />
<use x="280" y="96" xlink:href="#p" />
<use x="280" y="112" xlink:href="#p" />
<use x="280" y="120" xlink:href="#p" />
<use x="280" y="128" xlink:href="#p" />
<use x="280" y="152" xlink:href="#p" />
<use x="280" y="168" xlink:href="#p" />
<use x="280" y="176" xlink:href="#p" />
<use x="280" y="232" xlink:href="#p" />
<use x="280" y="240" xlink:href="#p" />
<use x="280" y="248" xlink:href="#p" />
<use x="280" y="256" xlink:href="#p" />
<use x="280" y="288" xlink:href="#p" />
<use x="280" y="320" xlink:href="#p" />
<use x="280" y="336" xlink:href="#p" />
<use x="280" y="352" xlink:href="#p" />
<use x="280" y="368" xlink:href="#p" />
<use x="280" y="424" xlink:href="#p" />
<use x="280" y="448" xlink:href="#p" />
<use x="280" y="480" xlink:href="#p" />
<use x="280" y="512" xlink:href="#p" />
<use x="288" y="40" xlink:href="#p" />
<use x="288" y="48" xlink:href="#p" />
<use x="288" y="56" xlink:href="#p" />
<use x="288" y="64" xlink:href="#p" />
<use x="288" y="72" xlink:href="#p" />
<use x="288" y="80" xlink:href="#p" />
<use x="288" y="88" xlink:href="#p" />
<use x="288" y="96" xlink:href="#p" />
<use x="288" y="120" xlink:href="#p" />
<use x="288" y="128" xlink:href="#p" />
<use x="288" y="136" xlink:href="#p" />
<use x="288" y="168" xlink:href="#p" />
<use x="288" y="192" xlink:href="#p" />
<use x="288" y="208" xlink:href="#p" />
<use x="288" y="216" xlink:href="#p" />
<use x="288" y="224" xlink:href="#p" />
<use x="288" y="232" xlink:href="#p" />
<use x="288" y="256" xlink:href="#p" />
<use x="288" y="264" xlink:href="#p" />
<use x="288" y="272" xlink:href="#p" />
<use x="288" y="280" xlink:href="#p" />
<use x="288" y="288" xlink:href="#p" />
<use x="288" y="304" xlink:href="#p" />
<use x="288" y="320" xlink:href="#p" />
<use x="288" y="336" xlink:href="#p" />
<use x="288" y="368" xlink:href="#p" />
<use x="288" y="376" xlink:href="#p" />
<use x="288" y="392" xlink:href="#p" />
<use x="288" y="400" xlink:href="#p" />
<use x="288" y="408" xlink:href="#p" />
<use x="288" y="416" xlink:href="#p" />
<use x="288" y="432" xlink:href="#p" />
<use x="288" y="448" xlink:href="#p" />
<use x="288" y="456" xlink:href="#p" />
<use x="288" y="464" xlink:href="#p" />
<use x="288" y="472" xlink:href="#p" />
<use x="288" y="480" xlink:href="#p" />
<use x="288" y="488" xlink:href="#p" />
<use x="288" y="496" xlink:href="#p" />
<use x="288" y="504" xlink:href="#p" />
<use x="296" y="32" xlink:href="#p" />
<use x="296" y="56" xlink:href="#p" />
<use x="296" y="64" xlink:href="#p" />
<use x="296" y="104" xlink:href="#p" />
<use x="296" y="120" xlink:href="#p" />
<use x="296" y="152" xlink:href="#p" />
<use x="296" y="168" xlink:href="#p" />
<use x="296" y="176" xlink:href="#p" />
<use x="296" y="184" xlink:href="#p" />
<use x="296" y="200" xlink:href="#p" />
<use x="296" y="224" xlink:href="#p" />
<use x="296" y="232" xlink:href="#p" />
<use x="296" y="256" xlink:href="#p" />
<use x="296" y="264" xlink:href="#p" />
<use x="296" y="288" xlink:href="#p" />
<use x="296" y="312" xlink:href="#p" />
<use x="296" y="320" xlink:href="#p" />
<use x="296" y="328" xlink:href="#p" />
<use x="296" y="360" xlink:href="#p" />
<use x="296" y="368" xlink:href="#p" />
<use x="296" y="376" xlink:href="#p" />
<use x="296" y="384" xlink:href="#p" />
<use x="296" y="400" xlink:href="#p" />
<use x="296" y="408" xlink:href="#p" />
<use x="296" y="416" xlink:href="#p" />
<use x="296" y="424" xlink:href="#p" />
<use x="296" y="432" xlink:href="#p" />
<use x="296" y="440" xlink:href="#p" />
<use x="296" y="448" xlink:href="#p" />
<use x="296" y="488" xlink:href="#p" />
<use x="296" y="504" xlink:href="#p" />
<use x="304" y="48" xlink:href="#p" />
<use x="304" y="56" xlink:href="#p" />
<use x="304" y="72" xlink:href="#p" />
<use x="304" y="80" xlink:href="#p" />
<use x="304" y="96" xlink:href="#p" />
<use x="304" y="112" xlink:href="#p" />
<use x="304" y="128" xlink:href="#p" />
<use x="304" y="152" xlink:href="#p" />
<use x="304" y="160" xlink:href="#p" />
<use x="304" y="168" xlink:href="#p" />
<use x="304" y="192" xlink:href="#p" />
<use x="304" y="240" xlink:href="#p" />
<use x="304" y="248" xlink:href="#p" />
<use x="304" y="256" xlink:href="#p" />
<use x="304" y="264" xlink:href="#p" />
<use x="304" y="272" xlink:href="#p" />
<use x="304" y="288" xlink:href="#p" />
<use x="304" y="320" xlink:href="#p" />
<use x="304" y="328" xlink:href="#p" />
<use x="304" y="336" xlink:href="#p" />
<use x="304" y="352" xlink:href="#p" />
<use x="304" y="360" xlink:href="#p" />
<use x="304" y="400" xlink:href="#p" />
<use x="304" y="408" xlink:href="#p" />
<use x="304" y="432" xlink:href="#p" />
<use x="304" y="456" xlink:href="#p" />
<use x="304" y="472" xlink:href="#p" />
<use x="304" y="480" xlink:href="#p" />
<use x="304" y="496" xlink:href="#p" />
<use x="304" y="504" xlink:href="#p" />
<use x="304" y="512" xlink:href="#p" />
<use x="312" y="64" xlink:href="#p" />
<use x="312" y="88" xlink:href="#p" />
<use x="312" y="104" xlink:href="#p" />
<use x="312" y="112" xlink:href="#p" />
<use x="312" y="120" xlink:href="#p" />
<use x="312" y="128" xlink:href="#p" />
<use x="312" y="152" xlink:href="#p" />
<use x="312" y="168" xlink:href="#p" />
<use x="312" y="208" xlink:href="#p" />
<use x="312" y="224" xlink:href="#p" />
<use x="312" y="232" xlink:href="#p" />
<use x="312" y="240" xlink:href="#p" />
<use x="312" y="264" xlink:href="#p" />
<use x="312" y="280" xlink:href="#p" />
<use x="312" y="288" xlink:href="#p" />
<use x="312" y="312" xlink:href="#p" />
<use x="312" y="320" xlink:href="#p" />
<use x="312" y="328" xlink:href="#p" />
<use x="312" y="336" xlink:href="#p" />
<use x="312" y="360" xlink:href="#p" />
<use x="312" y="376" xlink:href="#p" />
<use x="312" y="384" xlink:href="#p" />
<use x="312" y="440" xlink:href="#p" />
<use x="312" y="464" xlink:href="#p" />
<use x="312" y="488" xlink:href="#p" />
<use x="312" y="496" xlink:href="#p" />
<use x="312" y="504" xlink:href="#p" />
<use x="312" y="512" xlink:href="#p" />
<use x="320" y="32" xlink:href="#p" />
<use x="320" y="48" xlink:href="#p" />
<use x="320" y="56" xlink:href="#p" />
<use x="320" y="64" xlink:href="#p" />
<use x="320" y="72" xlink:href="#p" />
<use x="320" y="80" xlink:href="#p" />
<use x="320" y="88" xlink:href="#p" />
<use x="320" y="104" xlink:href="#p" />
<use x="320" y="112" xlink:href="#p" />
<use x="320" y="128" xlink:href="#p" />
<use x="320" y="176" xlink:href="#p" />
<use x="320" y="184" xlink:href="#p" />
<use x="320" y="200" xlink:href="#p" />
<use x="320" y="224" xlink:href="#p" />
<use x="320" y="248" xlink:href="#p" />
<use x="320" y="264" xlink:href="#p" />
<use x="320" y="272" xlink:href="#p" />
<use x="320" y="280" xlink:href="#p" />
<use x="320" y="304" xlink:href="#p" />
<use x="320" y="312" xlink:href="#p" />
<use x="320" y="320" xlink:href="#p" />
<use x="320" y="344" xlink:href="#p" />
<use x="320" y="360" xlink:href="#p" />
<use x="320" y="408" xlink:href="#p" />
<use x="320" y="416" xlink:href="#p" />
<use x="320" y="424" xlink:href="#p" />
<use x="320" y="464" xlink:href="#p" />
<use x="320" y="472" xlink:href="#p" />
<use x="320" y="496" xlink:href="#p" />
<use x="320" y="512" xlink:href="#p" />
<use x="328" y="32" xlink:href="#p" />
<use x="328" y="40" xlink:href="#p" />
<use x="328" y="48" xlink:href="#p" />
<use x="328" y="64" xlink:href="#p" />
<use x="328" y="72" xlink:href="#p" />
<use x="328" y="104" xlink:href="#p" />
<use x="328" y="112" xlink:href="#p" />
<use x="328" y="128" xlink:href="#p" />
<use x="328" y="136" xlink:href="#p" />
<use x="328" y="144" xlink:href="#p" />
<use x="328" y="152" xlink:href="#p" />
<use x="328" y="160" xlink:href="#p" />
<use x="328" y="208" xlink:href="#p" />
<use x="328" y="224" xlink:href="#p" />
<use x="328" y="240" xlink:href="#p" />
<use x="328" y="248" xlink:href="#p" />
<use x="328" y="280" xlink:href="#p" />
<use x="328" y="296" xlink:href="#p" />
<use x="328" y="304" xlink:href="#p" />
<use x="328" y="312" xlink:href="#p" />
<use x="328" y="328" xlink:href="#p" />
<use x="328" y="336" xlink:href="#p" />
<use x="328" y="344" xlink:href="#p" />
<use x="328" y="376" xlink:href="#p" />
<use x="328" y="384" xlink:href="#p" />
<use x="328" y="400" xlink:href="#p" />
<use x="328" y="408" xlink:href="#p" />
<use x="328" y="464" xlink:href="#p" />
<use x="328" y="488" xlink:href="#p" />
<use x="328" y="504" xlink:href="#p" />
<use x="336" y="56" xlink:href="#p" />
<use x="336" y="64" xlink:href="#p" />
<use x="336" y="80" xlink:href="#p" />
<use x="336" y="96" xlink:href="#p" />
<use x="336" y="136" xlink:href="#p" />
<use x="336" y="160" xlink:href="#p" />
<use x="336" y="176" xlink:href="#p" />
<use x="336" y="192" xlink:href="#p" />
<use x="336" y="232" xlink:href="#p" />
<use x="336" y="240" xlink:href="#p" />
<use x="336" y="248" xlink:href="#p" />
<use x="336" y="280" xlink:href="#p" />
<use x="336" y="312" xlink:href="#p" />
<use x="336" y="320" xlink:href="#p" />
<use x="336" y="328" xlink:href="#p" />
<use x="336" y="336" xlink:href="#p" />
<use x="336" y="344" xlink:href="#p" />
<use x="336" y="368" xlink:href="#p" />
<use x="336" y="376" xlink:href="#p" />
<use x="336" y="416" xlink:href="#p" />
<use x="336" y="424" xlink:href="#p" />
<use x="336" y="432" xlink:href="#p" />
<use x="336" y="440" xlink:href="#p" />
<use x="336" y="448" xlink:href="#p" />
<use x="336" y="464" xlink:href="#p" />
<use x="336" y="472" xlink:href="#p" />
<use x="336" y="504" xlink:href="#p" />
<use x="336" y="512" xlink:href="#p" />
<use x="344" y="96" xlink:href="#p" />
<use x="344" y="112" xlink:href="#p" />
<use x="344" y="120" xlink:href="#p" />
<use x="344" y="136" xlink:href="#p" />
<use x="344" y="144" xlink:href="#p" />
<use x="344" y="152" xlink:href="#p" />
<use x="344" y="160" xlink:href="#p" />
<use x="344" y="168" xlink:href="#p" />
<use x="344" y="176" xlink:href="#p" />
<use x="344" y="248" xlink:href="#p" />
<use x="344" y="256" xlink:href="#p" />
<use x="344" y="264" xlink:href="#p" />
<use x="344" y="280" xlink:href="#p" />
<use x="344" y="296" xlink:href="#p" />
<use x="344" y="304" xlink:href="#p" />
<use x="344" y="312" xlink:href="#p" />
<use x="344" y="320" xlink:href="#p" />
<use x="344" y="328" xlink:href="#p" />
<use x="344" y="344" xlink:href="#p" />
<use x="344" y="352" xlink:href="#p" />
<use x="344" y="368" xlink:href="#p" />
<use x="344" y="376" xlink:href="#p" />
<use x="344" y="384" xlink:href="#p" />
<use x="344" y="408" xlink:href="#p" />
<use x="344" y="440" xlink:href="#p" />
<use x="344" y="448" xlink:href="#p" />
<use x="344" y="456" xlink:href="#p" />
<use x="344" y="464" xlink:href="#p" />
<use x="344" y="480" xlink:href="#p" />
<use x="344" y="488" xlink:href="#p" />
<use x="344" y="504" xlink:href="#p" />
<use x="344" y="512" xlink:href="#p" />
<use x="352" y="48" xlink:href="#p" />
<use x="352" y="64" xlink:href="#p" />
<use x="352" y="80" xlink:href="#p" />
<use x="352" y="88" xlink:href="#p" />
<use x="352" y="96" xlink:href="#p" />
<use x="352" y="104" xlink:href="#p" />
<use x="352" y="112" xlink:href="#p" />
<use x="352" y="120" xlink:href="#p" />
<use x="352" y="136" xlink:href="#p" />
<use x="352" y="176" xlink:href="#p" />
<use x="352" y="192" xlink:href="#p" />
<use x="352" y="200" xlink:href="#p" />
<use x="352" y="208" xlink:href="#p" />
<use x="352" y="232" xlink:href="#p" />
<use x="352" y="240" xlink:href="#p" />
<use x="352" y="280" xlink:href="#p" />
<use x="352" y="288" xlink:href="#p" />
<use x="352" y="336" xlink:href="#p" />
<use x="352" y="344" xlink:href="#p" />
<use x="352" y="360" xlink:href="#p" />
<use x="352" y="384" xlink:href="#p" />
<use x="352" y="392" xlink:href="#p" />
<use x="352" y="400" xlink:href="#p" />
<use x="352" y="424" xlink:href="#p" />
<use x="352" y="432" xlink:href="#p" />
<use x="352" y="440" xlink:href="#p" />
<use x="352" y="456" xlink:href="#p" />
<use x="352" y="464" xlink:href="#p" />
<use x="352" y="480" xlink:href="#p" />
<use x="352" y="488" xlink:href="#p" />
<use x="360" y="32" xlink:href="#p" />
<use x="360" y="40" xlink:href="#p" />
<use x="360" y="48" xlink:href="#p" />
<use x="360" y="56" xlink:href="#p" />
<use x="360" y="72" xlink:href="#p" />
<use x="360" y="96" xlink:href="#p" />
<use x="360" y="104" xlink:href="#p" />
<use x="360" y="144" xlink:href="#p" />
<use x="360" y="168" xlink:href="#p" />
<use x="360" y="176" xlink:href="#p" />
<use x="360" y="184" xlink:href="#p" />
<use x="360" y="192" xlink:href="#p" />
<use x="360" y="200" xlink:href="#p" />
<use x="360" y="248" xlink:href="#p" />
<use x="360" y="264" xlink:href="#p" />
<use x="360" y="272" xlink:href="#p" />
<use x="360" y="288" xlink:href="#p" />
<use x="360" y="296" xlink:href="#p" />
<use x="360" y="304" xlink:href="#p" />
<use x="360" y="312" xlink:href="#p" />
<use x="360" y="336" xlink:href="#p" />
<use x="360" y="352" xlink:href="#p" />
<use x="360" y="360" xlink:href="#p" />
<use x="360" y="376" xlink:href="#p" />
<use x="360" y="392" xlink:href="#p" />
<use x="360" y="400" xlink:href="#p" />
<use x="360" y="408" xlink:href="#p" />
<use x="360" y="416" xlink:href="#p" />
<use x="360" y="432" xlink:href="#p" />
<use x="360" y="448" xlink:href="#p" />
<use x="360" y="456" xlink:href="#p" />
<use x="360" y="480" xlink:href="#p" />
<use x="360" y="488" xlink:href="#p" />
<use x="360" y="504" xlink:href="#p" />
<use x="368" y="32" xlink:href="#p" />
<use x="368" y="40" xlink:href="#p" />
<use x="368" y="56" xlink:href="#p" />
<use x="368" y="72" xlink:href="#p" />
<use x="368" y="80" xlink:href="#p" />
<use x="368" y="88" xlink:href="#p" />
<use x="368" y="96" xlink:href="#p" />
<use x="368" y="104" xlink:href="#p" />
<use x="368" y="112" xlink:href="#p" />
<use x="368" y="120" xlink:href="#p" />
<use x="368" y="152" xlink:href="#p" />
<use x="368" y="192" xlink:href="#p" />
<use x="368" y="200" xlink:href="#p" />
<use x="368" y="208" xlink:href="#p" />
<use x="368" y="240" xlink:href="#p" />
<use x="368" y="248" xlink:href="#p" />
<use x="368" y="272" xlink:href="#p" />
<use x="368" y="296" xlink:href="#p" />
<use x="368" y="304" xlink:href="#p" />
<use x="368" y="320" xlink:href="#p" />
<use x="368" y="336" xlink:href="#p" />
<use x="368" y="344" xlink:href="#p" />
<use x="368" y="352" xlink:href="#p" />
<use x="368" y="384" xlink:href="#p" />
<use x="368" y="392" xlink:href="#p" />
<use x="368" y="416" xlink:href="#p" />
<use x="368" y="432" xlink:href="#p" />
<use x="368" y="440" xlink:href="#p" />
<use x="368" y="448" xlink:href="#p" />
<use x="368" y="488" xlink:href="#p" />
<use x="368" y="496" xlink:href="#p" />
<use x="368" y="504" xlink:href="#p" />
<use x="368" y="512" xlink:href="#p" />
<use x="376" y="40" xlink:href="#p" />
<use x="376" y="48" xlink:href="#p" />
<use x="376" y="72" xlink:href="#p" />
<use x="376" y="112" xlink:href="#p" />
<use x="376" y="128" xlink:href="#p" />
<use x="376" y="136" xlink:href="#p" />
<use x="376" y="144" xlink:href="#p" />
<use x="376" y="168" xlink:href="#p" />
<use x="376" y="176" xlink:href="#p" />
<use x="376" y="216" xlink:href="#p" />
<use x="376" y="224" xlink:href="#p" />
<use x="376" y="240" xlink:href="#p" />
<use x="376" y="256" xlink:href="#p" />
<use x="376" y="280" xlink:href="#p" />
<use x="376" y="312" xlink:href="#p" />
<use x="376" y="320" xlink:href="#p" />
<use x="376" y="328" xlink:href="#p" />
<use x="376" y="344" xlink:href="#p" />
<use x="376" y="360" xlink:href="#p" />
<use x="376" y="368" xlink:href="#p" />
<use x="376" y="376" xlink:href="#p" />
<use x="376" y="384" xlink:href="#p" />
<use x="376" y="416" xlink:href="#p" />
<use x="376" y="424" xlink:href="#p" />
<use x="376" y="448" xlink:href="#p" />
<use x="376" y="464" xlink:href="#p" />
<use x="384" y="32" xlink:href="#p" />
<use x="384" y="64" xlink:href="#p" />
<use x="384" y="72" xlink:href="#p" />
<use x="384" y="80" xlink:href="#p" />
<use x="384" y="104" xlink:href="#p" />
<use x="384" y="120" xlink:href="#p" />
<use x="384" y="136" xlink:href="#p" />
<use x="384" y="152" xlink:href="#p" />
<use x="384" y="160" xlink:href="#p" />
<use x="384" y="184" xlink:href="#p" />
<use x="384" y="200" xlink:href="#p" />
<use x="384" y="208" xlink:href="#p" />
<use x="384" y="240" xlink:href="#p" />
<use x="384" y="256" xlink:href="#p" />
<use x="384" y="264" xlink:href="#p" />
<use x="384" y="272" xlink:href="#p" />
<use x="384" y="296" xlink:href="#p" />
<use x="384" y="304" xlink:href="#p" />
<use x="384" y="312" xlink:href="#p" />
<use x="384" y="328" xlink:href="#p" />
<use x="384" y="336" xlink:href="#p" />
<use x="384" y="344" xlink:href="#p" />
<use x="384" y="352" xlink:href="#p" />
<use x="384" y="360" xlink:href="#p" />
<use x="384" y="368" xlink:href="#p" />
<use x="384" y="400" xlink:href="#p" />
<use x="384" y="408" xlink:href="#p" />
<use x="384" y="424" xlink:href="#p" />
<use x="384" y="440" xlink:href="#p" />
<use x="384" y="448" xlink:href="#p" />
<use x="384" y="456" xlink:href="#p" />
<use x="384" y="472" xlink:href="#p" />
<use x="384" y="488" xlink:href="#p" />
<use x="384" y="504" xlink:href="#p" />
<use x="392" y="32" xlink:href="#p" />
<use x="392" y="40" xlink:href="#p" />
<use x="392" y="64" xlink:href="#p" />
<use x="392" y="88" xlink:href="#p" />
<use x="392" y="144" xlink:href="#p" />
<use x="392" y="152" xlink:href="#p" />
<use x="392" y="160" xlink:href="#p" />
<use x="392" y="176" xlink:href="#p" />
<use x="392" y="192" xlink:href="#p" />
<use x="392" y="216" xlink:href="#p" />
<use x="392" y="232" xlink:href="#p" />
<use x="392" y="240" xlink:href="#p" />
<use x="392" y="248" xlink:href="#p" />
<use x="392" y="256" xlink:href="#p" />
<use x="392" y="280" xlink:href="#p" />
<use x="392" y="296" xlink:href="#p" />
<use x="392" y="304" xlink:href="#p" />
<use x="392" y="320" xlink:href="#p" />
<use x="392" y="344" xlink:href="#p" />
<use x="392" y="360" xlink:href="#p" />
<use x="392" y="368" xlink:href="#p" />
<use x="392" y="384" xlink:href="#p" />
<use x="392" y="392" xlink:href="#p" />
<use x="392" y="400" xlink:href="#p" />
<use x="392" y="416" xlink:href="#p" />
<use x="392" y="440" xlink:href="#p" />
<use x="392" y="456" xlink:href="#p" />
<use x="392" y="464" xlink:href="#p" />
<use x="400" y="40" xlink:href="#p" />
<use x="400" y="48" xlink:href="#p" />
<use x="400" y="56" xlink:href="#p" />
<use x="400" y="72" xlink:href="#p" />
<use x="400" y="80" xlink:href="#p" />
<use x="400" y="88" xlink:href="#p" />
<use x="400" y="112" xlink:href="#p" />
<use x="400" y="128" xlink:href="#p" />
<use x="400" y="160" xlink:href="#p" />
<use x="400" y="168" xlink:href="#p" />
<use x="400" y="176" xlink:href="#p" />
<use x="400" y="184" xlink:href="#p" />
<use x="400" y="192" xlink:href="#p" />
<use x="400" y="224" xlink:href="#p" />
<use x="400" y="264" xlink:href="#p" />
<use x="400" y="272" xlink:href="#p" />
<use x="400" y="280" xlink:href="#p" />
<use x="400" y="304" xlink:href="#p" />
<use x="400" y="312" xlink:href="#p" />
<use x="400" y="320" xlink:href="#p" />
<use x="400" y="352" xlink:href="#p" />
<use x="400" y="360" xlink:href="#p" />
<use x="400" y="368" xlink:href="#p" />
<use x="400" y="384" xlink:href="#p" />
<use x="400" y="400" xlink:href="#p" />
<use x="400" y="408" xlink:href="#p" />
<use x="400" y="432" xlink:href="#p" />
<use x="400" y="456" xlink:href="#p" />
<use x="400" y="496" xlink:href="#p" />
<use x="408" y="40" xlink:href="#p" />
<use x="408" y="48" xlink:href="#p" />
<use x="408" y="88" xlink:href="#p" />
<use x="408" y="96" xlink:href="#p" />
<use x="408" y="112" xlink:href="#p" />
<use x="408" y="128" xlink:href="#p" />
<use x="408" y="152" xlink:href="#p" />
<use x="408" y="160" xlink:href="#p" />
<use x="408" y="176" xlink:href="#p" />
<use x="408" y="200" xlink:href="#p" />
<use x="408" y="208" xlink:href="#p" />
<use x="408" y="216" xlink:href="#p" />
<use x="408" y="232" xlink:href="#p" />
<use x="408" y="240" xlink:href="#p" />
<use x="408" y="280" xlink:href="#p" />
<use x="408" y="288" xlink:href="#p" />
<use x="408" y="296" xlink:href="#p" />
<use x="408" y="320" xlink:href="#p" />
<use x="408" y="328" xlink:href="#p" />
<use x="408" y="336" xlink:href="#p" />
<use x="408" y="344" xlink:href="#p" />
<use x="408" y="360" xlink:href="#p" />
<use x="408" y="368" xlink:href="#p" />
<use x="408" y="392" xlink:href="#p" />
<use x="408" y="416" xlink:href="#p" />
<use x="408" y="464" xlink:href="#p" />
<use x="408" y="472" xlink:href="#p" />
<use x="408" y="480" xlink:href="#p" />
<use x="408" y="512" xlink:href="#p" />
<use x="416" y="40" xlink:href="#p" />
<use x="416" y="48" xlink:href="#p" />
<use x="416" y="56" xlink:href="#p" />
<use x="416" y="64" xlink:href="#p" />
<use x="416" y="72" xlink:href="#p" />
<use x="416" y="80" xlink:href="#p" />
<use x="416" y="88" xlink:href="#p" />
<use x="416" y="112" xlink:href="#p" />
<use x="416" y="128" xlink:href="#p" />
<use x="416" y="168" xlink:href="#p" />
<use x="416" y="184" xlink:href="#p" />
<use x="416" y="200" xlink:href="#p" />
<use x="416" y="216" xlink:href="#p" />
<use x="416" y="224" xlink:href="#p" />
<use x="416" y="248" xlink:href="#p" />
<use x="416" y="264" xlink:href="#p" />
<use x="416" y="304" xlink:href="#p" />
<use x="416" y="312" xlink:href="#p" />
<use x="416" y="320" xlink:href="#p" />
<use x="416" y="328" xlink:href="#p" />
<use x="416" y="336" xlink:href="#p" />
<use x="416" y="344" xlink:href="#p" />
<use x="416" y="368" xlink:href="#p" />
<use x="416" y="376" xlink:href="#p" />
<use x="416" y="416" xlink:href="#p" />
<use x="416" y="432" xlink:href="#p" />
<use x="416" y="456" xlink:href="#p" />
<use x="416" y="496" xlink:href="#p" />
<use x="416" y="512" xlink:href="#p" />
<use x="424" y="32" xlink:href="#p" />
<use x="424" y="40" xlink:href="#p" />
<use x="424" y="48" xlink:href="#p" />
<use x="424" y="56" xlink:href="#p" />
<use x="424" y="88" xlink:href="#p" />
<use x="424" y="96" xlink:href="#p" />
<use x="424" y="104" xlink:href="#p" />
<use x="424" y="144" xlink:href="#p" />
<use x="424" y="152" xlink:href="#p" />
<use x="424" y="184" xlink:href="#p" />
<use x="424" y="192" xlink:href="#p" />
<use x="424" y="200" xlink:href="#p" />
<use x="424" y="224" xlink:href="#p" />
<use x="424" y="232" xlink:href="#p" />
<use x="424" y="280" xlink:href="#p" />
<use x="424" y="296" xlink:href="#p" />
<use x="424" y="304" xlink:href="#p" />
<use x="424" y="312" xlink:href="#p" />
<use x="424" y="320" xlink:href="#p" />
<use x="424" y="328" xlink:href="#p" />
<use x="424" y="336" xlink:href="#p" />
<use x="424" y="368" xlink:href="#p" />
<use x="424" y="376" xlink:href="#p" />
<use x="424" y="392" xlink:href="#p" />
<use x="424" y="400" xlink:href="#p" />
<use x="424" y="408" xlink:href="#p" />
<use x="424" y="424" xlink:href="#p" />
<use x="424" y="432" xlink:href="#p" />
<use x="424" y="440" xlink:href="#p" />
<use x="424" y="448" xlink:href="#p" />
<use x="424" y="488" xlink:href="#p" />
<use x="424" y="504" xlink:href="#p" />
<use x="432" y="48" xlink:href="#p" />
<use x="432" y="56" xlink:href="#p" />
<use x="432" y="64" xlink:href="#p" />
<use x="432" y="72" xlink:href="#p" />
<use x="432" y="80" xlink:href="#p" />
<use x="432" y="88" xlink:href="#p" />
<use x="432" y="96" xlink:href="#p" />
<use x="432" y="112" xlink:href="#p" />
<use x="432" y="136" xlink:href="#p" />
<use x="432" y="160" xlink:href="#p" />
<use x="432" y="184" xlink:href="#p" />
<use x="432" y="192" xlink:href="#p" />
<use x="432" y="232" xlink:href="#p" />
<use x="432" y="248" xlink:href="#p" />
<use x="432" y="280" xlink:href="#p" />
<use x="432" y="304" xlink:href="#p" />
<use x="432" y="312" xlink:href="#p" />
<use x="432" y="328" xlink:href="#p" />
<use x="432" y="336" xlink:href="#p" />
<use x="432" y="384" xlink:href="#p" />
<use x="432" y="400" xlink:href="#p" />
<use x="432" y="416" xlink:href="#p" />
<use x="432" y="424" xlink:href="#p" />
<use x="432" y="448" xlink:href="#p" />
<use x="432" y="464" xlink:href="#p" />
<use x="432" y="472" xlink:href="#p" />
<use x="432" y="480" xlink:href="#p" />
<use x="432" y="496" xlink:href="#p" />
<use x="432" y="512" xlink:href="#p" />
<use x="440" y="32" xlink:href="#p" />
<use x="440" y="40" xlink:href="#p" />
<use x="440" y="48" xlink:href="#p" />
<use x="440" y="64" xlink:href="#p" />
<use x="440" y="96" xlink:href="#p" />
<use x="440" y="120" xlink:href="#p" />
<use x="440" y="136" xlink:href="#p" />
<use x="440" y="144" xlink:href="#p" />
<use x="440" y="152" xlink:href="#p" />
<use x="440" y="160" xlink:href="#p" />
<use x="440" y="168" xlink:href="#p" />
<use x="440" y="176" xlink:href="#p" />
<use x="440" y="192" xlink:href="#p" />
<use x="440" y="200" xlink:href="#p" />
<use x="440" y="208" xlink:href="#p" />
<use x="440" y="224" xlink:href="#p" />
<use x="440" y="232" xlink:href="#p" />
<use x="440" y="240" xlink:href="#p" />
<use x="440" y="248" xlink:href="#p" />
<use x="440" y="256" xlink:href="#p" />
<use x="440" y="264" xlink:href="#p" />
<use x="440" y="288" xlink:href="#p" />
<use x="440" y="296" xlink:href="#p" />
<use x="440" y="304" xlink:href="#p" />
<use x="440" y="320" xlink:href="#p" />
<use x="440" y="368" xlink:href="#p" />
<use x="440" y="400" xlink:href="#p" />
<use x="440" y="408" xlink:href="#p" />
<use x="440" y="416" xlink:href="#p" />
<use x="440" y="440" xlink:href="#p" />
<use x="440" y="512" xlink:href="#p" />
<use x="448" y="32" xlink:href="#p" />
<use x="448" y="40" xlink:href="#p" />
<use x="448" y="48" xlink:href="#p" />
<use x="448" y="56" xlink:href="#p" />
<use x="448" y="80" xlink:href="#p" />
<use x="448" y="88" xlink:href="#p" />
<use x="448" y="96" xlink:href="#p" />
<use x="448" y="112" xlink:href="#p" />
<use x="448" y="128" xlink:href="#p" />
<use x="448" y="168" xlink:href="#p" />
<use x="448" y="176" xlink:href="#p" />
<use x="448" y="184" xlink:href="#p" />
<use x="448" y="216" xlink:href="#p" />
<use x="448" y="240" xlink:href="#p" />
<use x="448" y="248" xlink:href="#p" />
<use x="448" y="256" xlink:href="#p" />
<use x="448" y="264" xlink:href="#p" />
<use x="448" y="272" xlink:href="#p" />
<use x="448" y="280" xlink:href="#p" />
<use x="448" y="288" xlink:href="#p" />
<use x="448" y="312" xlink:href="#p" />
<use x="448" y="328" xlink:href="#p" />
<use x="448" y="352" xlink:href="#p" />
<use x="448" y="360" xlink:href="#p" />
<use x="448" y="376" xlink:href="#p" />
<use x="448" y="424" xlink:href="#p" />
<use x="448" y="432" xlink:href="#p" />
<use x="448" y="440" xlink:href="#p" />
<use x="448" y="448" xlink:href="#p" />
<use x="448" y="456" xlink:href="#p" />
<use x="448" y="464" xlink:href="#p" />
<use x="448" y="472" xlink:href="#p" />
<use x="448" y="480" xlink:href="#p" />
<use x="448" y="488" xlink:href="#p" />
<use x="448" y="504" xlink:href="#p" />
<use x="456" y="96" xlink:href="#p" />
<use x="456" y="104" xlink:href="#p" />
<use x="456" y="112" xlink:href="#p" />
<use x="456" y="128" xlink:href="#p" />
<use x="456" y="168" xlink:href="#p" />
<use x="456" y="184" xlink:href="#p" />
<use x="456" y="192" xlink:href="#p" />
<use x="456" y="200" xlink:href="#p" />
<use x="456" y="208" xlink:href="#p" />
<use x="456" y="224" xlink:href="#p" />
<use x="456" y="248" xlink:href="#p" />
<use x="456" y="256" xlink:href="#p" />
<use x="456" y="288" xlink:href="#p" />
<use x="456" y="296" xlink:href="#p" />
<use x="456" y="336" xlink:href="#p" />
<use x="456" y="360" xlink:href="#p" />
<use x="456" y="376" xlink:href="#p" />
<use x="456" y="392" xlink:href="#p" />
<use x="456" y="408" xlink:href="#p" />
<use x="456" y="416" xlink:href="#p" />
<use x="456" y="424" xlink:href="#p" />
<use x="456" y="432" xlink:href="#p" />
<use x="456" y="440" xlink:href="#p" />
<use x="456" y="448" xlink:href="#p" />
<use x="456" y="480" xlink:href="#p" />
<use x="456" y="488" xlink:href="#p" />
<use x="456" y="496" xlink:href="#p" />
<use x="456" y="512" xlink:href="#p" />
<use x="464" y="32" xlink:href="#p" />
<use x="464" y="40" xlink:href="#p" />
<use x="464" y="48" xlink:href="#p" />
<use x="464" y="56" xlink:href="#p" />
<use x="464" y="64" xlink:href="#p" />
<use x="464" y="72" xlink:href="#p" />
<use x="464" y="80" xlink:href="#p" />
<use x="464" y="104" xlink:href="#p" />
<use x="464" y="120" xlink:href="#p" />
<use x="464" y="128" xlink:href="#p" />
<use x="464" y="144" xlink:href="#p" />
<use x="464" y="152" xlink:href="#p" />
<use x="464" y="176" xlink:href="#p" />
<use x="464" y="192" xlink:href="#p" />
<use x="464" y="200" xlink:href="#p" />
<use x="464" y="208" xlink:href="#p" />
<use x="464" y="248" xlink:href="#p" />
<use x="464" y="256" xlink:href="#p" />
<use x="464" y="272" xlink:href="#p" />
<use x="464" y="288" xlink:href="#p" />
<use x="464" y="296" xlink:href="#p" />
<use x="464" y="312" xlink:href="#p" />
<use x="464" y="344" xlink:href="#p" />
<use x="464" y="368" xlink:href="#p" />
<use x="464" y="376" xlink:href="#p" />
<use x="464" y="392" xlink:href="#p" />
<use x="464" y="424" xlink:href="#p" />
<use x="464" y="448" xlink:href="#p" />
<use x="464" y="464" xlink:href="#p" />
<use x="464" y="480" xlink:href="#p" />
<use x="472" y="32" xlink:href="#p" />
<use x="472" y="80" xlink:href="#p" />
<use x="472" y="112" xlink:href="#p" />
<use x="472" y="128" xlink:href="#p" />
<use x="472" y="136" xlink:href="#p" />
<use x="472" y="144" xlink:href="#p" />
<use x="472" y="160" xlink:href="#p" />
<use x="472" y="176" xlink:href="#p" />
<use x="472" y="200" xlink:href="#p" />
<use x="472" y="224" xlink:href="#p" />
<use x="472" y="240" xlink:href="#p" />
<use x="472" y="248" xlink:href="#p" />
<use x="472" y="256" xlink:href="#p" />
<use x="472" y="288" xlink:href="#p" />
<use x="472" y="296" xlink:href="#p" />
<use x="472" y="304" xlink:href="#p" />
<use x="472" y="312" xlink:href="#p" />
<use x="472" y="328" xlink:href="#p" />
<use x="472" y="344" xlink:href="#p" />
<use x="472" y="368" xlink:href="#p" />
<use x="472" y="424" xlink:href="#p" />
<use x="472" y="440" xlink:href="#p" />
<use x="472" y="448" xlink:href="#p" />
<use x="472" y="480" xlink:href="#p" />
<use x="472" y="496" xlink:href="#p" />
<use x="472" y="504" xlink:href="#p" />
<use x="480" y="32" xlink:href="#p" />
<use x="480" y="48" xlink:href="#p" />
<use x="480" y="56" xlink:href="#p" />
<use x="480" y="64" xlink:href="#p" />
<use x="480" y="80" xlink:href="#p" />
<use x="480" y="96" xlink:href="#p" />
<use x="480" y="104" xlink:href="#p" />
<use x="480" y="112" xlink:href="#p" />
<use x="480" y="120" xlink:href="#p" />
<use x="480" y="160" xlink:href="#p" />
<use x="480" y="176" xlink:href="#p" />
<use x="480" y="200" xlink:href="#p" />
<use x="480" y="208" xlink:href="#p" />
<use x="480" y="240" xlink:href="#p" />
<use x="480" y="248" xlink:href="#p" />
<use x="480" y="256" xlink:href="#p" />
<use x="480" y="264" xlink:href="#p" />
<use x="480" y="272" xlink:href="#p" />
<use x="480" y="280" xlink:href="#p" />
<use x="480" y="288" xlink:href="#p" />
<use x="480" y="304" xlink:href="#p" />
<use x="480" y="328" xlink:href="#p" />
<use x="480" y="368" xlink:href="#p" />
<use x="480" y="376" xlink:href="#p" />
<use x="480" y="384" xlink:href="#p" />
<use x="480" y="408" xlink:href="#p" />
<use x="480" y="416" xlink:href="#p" />
<use x="480" y="424" xlink:href="#p" />
<use x="480" y="432" xlink:href="#p" />
<use x="480" y="448" xlink:href="#p" />
<use x="480" y="456" xlink:href="#p" />
<use x="480" y="464" xlink:href="#p" />
<use x="480" y="472" xlink:href="#p" />
<use x="480" y="480" xlink:href="#p" />
<use x="480" y="496" xlink:href="#p" />
<use x="480" y="504" xlink:href="#p" />
<use x="480" y="512" xlink:href="#p" />
<use x="488" y="32" xlink:href="#p" />
<use x="488" y="48" xlink:href="#p" />
<use x="488" y="56" xlink:href="#p" />
<use x="488" y="64" xlink:href="#p" />
<use x="488" y="80" xlink:href="#p" />
<use x="488" y="96" xlink:href="#p" />
<use x="488" y="104" xlink:href="#p" />
<use x="488" y="112" xlink:href="#p" />
<use x="488" y="120" xlink:href="#p" />
<use x="488" y="128" xlink:href="#p" />
<use x="488" y="152" xlink:href="#p" />
<use x="488" y="160" xlink:href="#p" />
<use x="488" y="168" xlink:href="#p" />
<use x="488" y="184" xlink:href="#p" />
<use x="488" y="192" xlink:href="#p" />
<use x="488" y="208" xlink:href="#p" />
<use x="488" y="216" xlink:href="#p" />
<use x="488" y="224" xlink:href="#p" />
<use x="488" y="232" xlink:href="#p" />
<use x="488" y="264" xlink:href="#p" />
<use x="488" y="288" xlink:href="#p" />
<use x="488" y="312" xlink:href="#p" />
<use x="488" y="320" xlink:href="#p" />
<use x="488" y="328" xlink:href="#p" />
<use x="488" y="336" xlink:href="#p" />
<use x="488" y="360" xlink:href="#p" />
<use x="488" y="368" xlink:href="#p" />
<use x="488" y="392" xlink:href="#p" />
<use x="488" y="416" xlink:href="#p" />
<use x="488" y="472" xlink:href="#p" />
<use x="488" y="488" xlink:href="#p" />
<use x="488" y="504" xlink:href="#p" />
<use x="496" y="32" xlink:href="#p" />
<use x="496" y="48" xlink:href="#p" />
<use x="496" y="56" xlink:href="#p" />
<use x="496" y="64" xlink:href="#p" />
<use x="496" y="80" xlink:href="#p" />
<use x="496" y="96" xlink:href="#p" />
<use x="496" y="120" xlink:href="#p" />
<use x="496" y="128" xlink:href="#p" />
<use x="496" y="136" xlink:href="#p" />
<use x="496" y="144" xlink:href="#p" />
<use x="496" y="160" xlink:href="#p" />
<use x="496" y="168" xlink:href="#p" />
<use x="496" y="216" xlink:href="#p" />
<use x="496" y="256" xlink:href="#p" />
<use x="496" y="264" xlink:href="#p" />
<use x="496" y="312" xlink:href="#p" />
<use x="496" y="320" xlink:href="#p" />
<use x="496" y="360" xlink:href="#p" />
<use x="496" y="368" xlink:href="#p" />
<use x="496" y="400" xlink:href="#p" />
<use x="496" y="408" xlink:href="#p" />
<use x="496" y="424" xlink:href="#p" />
<use x="496" y="432" xlink:href="#p" />
<use x="496" y="448" xlink:href="#p" />
<use x="496" y="480" xlink:href="#p" />
<use x="496" y="504" xlink:href="#p" />
<use x="504" y="32" xlink:href="#p" />
<use x="504" y="80" xlink:href="#p" />
<use x="504" y="144" xlink:href="#p" />
<use x="504" y="152" xlink:href="#p" />
<use x="504" y="168" xlink:href="#p" />
<use x="504" y="184" xlink:href="#p" />
<use x="504" y="224" xlink:href="#p" />
<use x="504" y="232" xlink:href="#p" />
<use x="504" y="240" xlink:href="#p" />
<use x="504" y="272" xlink:href="#p" />
<use x="504" y="296" xlink:href="#p" />
<use x="504" y="304" xlink:href="#p" />
<use x="504" y="312" xlink:href="#p" />
<use x="504" y="336" xlink:href="#p" />
<use x="504" y="344" xlink:href="#p" />
<use x="504" y="352" xlink:href="#p" />
<use x="504" y="360" xlink:href="#p" />
<use x="504" y="392" xlink:href="#p" />
<use x="504" y="400" xlink:href="#p" />
<use x="504" y="408" xlink:href="#p" />
<use x="504" y="448" xlink:href="#p" />
<use x="504" y="456" xlink:href="#p" />
<use x="504" y="464" xlink:href="#p" />
<use x="504" y="472" xlink:href="#p" />
<use x="504" y="496" xlink:href="#p" />
<use x="504" y="512" xlink:href="#p" />
<use x="512" y="32" xlink:href="#p" />
<use x="512" y="40" xlink:href="#p" />
<use x="512" y="48" xlink:href="#p" />
<use x="512" y="56" xlink:href="#p" />
<use x="512" y="64" xlink:href="#p" />
<use x="512" y="72" xlink:href="#p" />
<use x="512" y="80" xlink:href="#p" />
<use x="512" y="96" xlink:href="#p" />
<use x="512" y="104" xlink:href="#p" />
<use x="512" y="120" xlink:href="#p" />
<use x="512" y="128" xlink:href="#p" />
<use x="512" y="136" xlink:href="#p" />
<use x="512" y="152" xlink:href="#p" />
<use x="512" y="160" xlink:href="#p" />
<use x="512" y="168" xlink:href="#p" />
<use x="512" y="176" xlink:href="#p" />
<use x="512" y="224" xlink:href="#p" />
<use x="512" y="256" xlink:href="#p" />
<use x="512" y="272" xlink:href="#p" />
<use x="512" y="280" xlink:href="#p" />
<use x="512" y="288" xlink:href="#p" />
<use x="512" y="312" xlink:href="#p" />
<use x="512" y="320" xlink:href="#p" />
<use x="512" y="328" xlink:href="#p" />
<use x="512" y="368" xlink:href="#p" />
<use x="512" y="408" xlink:href="#p" />
<use x="512" y="424" xlink:href="#p" />
<use x="512" y="440" xlink:href="#p" />
<use x="512" y="464" xlink:href="#p" />
<use x="512" y="472" xlink:href="#p" />
<use x="512" y="480" xlink:href="#p" />
<use x="512" y="488" xlink:href="#p" />
<use x="512" y="512" xlink:href="#p" />
</g>
</svg>