digraph G
{
  size ="6,6";
  ranksep = 0.2;

  graph [fontname = "helvetica"]
  edge [arrowhead = "none", style = "bold"]
  node [width=3, style="filled", shape= Mrecord, fillcolor="#AAAAAA", fontname = "helvetica"]

  subgraph cluster0
  {
    label="Segmentation and Count";
    one [label="Load DAPI image", fillcolor="#8888FF"];
    two [label="Start separating chromomsomes"];
    three [label="Count chromosomes", fillcolor="red"];
    {
      rank = same;
        two;
        three;
    }
  }

  subgraph cluster1 {
    label="Multi Channel Color Assignment";
    four [label="Load multi channel images", fillcolor="#8888FF"];
    five [label="Overlay channels"];
    six [label="Assign colors", fillcolor="red:blue"];
    seven [label="Chromosome clipping"];
    eight [label="Chromosome rotating"];
    nine [label="Assembly", fillcolor="red"];
    {
      rank = same;
        eight;
        nine;
    }
  }

  one -> two -> four -> five -> six -> seven -> eight[weight=100];
  two -> three[arrowhead = "open", style = "solid"]
  eight -> nine[arrowhead = "open", style = "solid"]
}
